INDEX VERSION 1.4+C:\Users\Administrator\Documents\School Stuff\Activity WorkSpaces\s05-a2\.metadata\.plugins\org.eclipse.wst.jsdt.core\indexes
637431155.index
3051674366.index
24018707.index
1979608577.index
1244500545.index
4090920184.index
2248623997.index
